{
    "/js/app.js": "/js/app.js?id=acceceac37c6cdb7c65f",
    "/css/bootstrap.css": "/css/bootstrap.css?id=4f6f32a53d344ada6feb",
    "/css/app.css": "/css/app.css?id=a84115943d0541ca048c",
    "/js/app.js.map": "/js/app.js.map?id=35734aded7c298e722d3",
    "/css/bootstrap.css.map": "/css/bootstrap.css.map?id=fc99e31e3f12a7f0e1bc",
    "/css/app.css.map": "/css/app.css.map?id=0ea9f265a3c60bbb2a05"
}
